Data Preprocessing in R
…
Put the columns to the data :

Last two columns in the data are identifier so we use the first 69 columns.

colnames(data)[1:69] <- names 
data

# A tibble: 200 × 71
   age_gt_60 air      airBoneGap ar_c     ar_u   bone  boneAbnormal bser 
   <lgl>     <chr>    <lgl>      <chr>    <chr>  <chr> <lgl>        <chr>
 1 FALSE     mild     FALSE      normal   normal <NA>  TRUE         <NA> 
 2 FALSE     moderate FALSE      normal   normal <NA>  TRUE         <NA> 
 3 TRUE      mild     TRUE       <NA>     absent mild  TRUE         <NA> 
 4 TRUE      mild     TRUE       <NA>     absent mild  FALSE        <NA> 
 5 TRUE      mild     FALSE      normal   normal mild  TRUE         <NA> 
 6 TRUE      mild     FALSE      normal   normal mild  TRUE         <NA> 
 7 FALSE     mild     FALSE      normal   normal mild  TRUE         <NA> 
 8 FALSE     mild     FALSE      normal   normal mild  TRUE         <NA> 
 9 FALSE     severe   FALSE      <NA>     <NA>   <NA>  TRUE         <NA> 
10 TRUE      mild     FALSE      elevated absent mild  TRUE         <NA> 
# ℹ 190 more rows
# ℹ 63 more variables: history_buzzing <lgl>, history_dizziness <lgl>,
#   history_fluctuating <lgl>, history_fullness <lgl>, history_heredity <lgl>,
#   history_nausea <lgl>, history_noise <lgl>, history_recruitment <lgl>,
#   history_ringing <lgl>, history_roaring <lgl>, history_vomiting <lgl>,
#   late_wave_poor <lgl>, m_at_2k <lgl>, m_cond_lt_1k <lgl>, m_gt_1k <lgl>,
#   m_m_gt_2k <lgl>, m_m_sn <lgl>, m_m_sn_gt_1k <lgl>, m_m_sn_gt_2k <lgl>, …

Renaming the last two columns:

colnames(data)[70:71] <- c("id", "class")
(data[70:71])

# A tibble: 200 × 2
   id    class                          
   <chr> <chr>                          
 1 p1    cochlear_unknown               
 2 p2    cochlear_unknown               
 3 p3    mixed_cochlear_age_fixation    
 4 p4    mixed_cochlear_age_otitis_media
 5 p5    cochlear_age                   
 6 p6    cochlear_age                   
 7 p7    cochlear_unknown               
 8 p8    cochlear_unknown               
 9 p9    cochlear_unknown               
10 p10   cochlear_age                   
# ℹ 190 more rows

(data)

# A tibble: 200 × 71
   age_gt_60 air      airBoneGap ar_c     ar_u   bone  boneAbnormal bser 
   <lgl>     <chr>    <lgl>      <chr>    <chr>  <chr> <lgl>        <chr>
 1 FALSE     mild     FALSE      normal   normal <NA>  TRUE         <NA> 
 2 FALSE     moderate FALSE      normal   normal <NA>  TRUE         <NA> 
 3 TRUE      mild     TRUE       <NA>     absent mild  TRUE         <NA> 
 4 TRUE      mild     TRUE       <NA>     absent mild  FALSE        <NA> 
 5 TRUE      mild     FALSE      normal   normal mild  TRUE         <NA> 
 6 TRUE      mild     FALSE      normal   normal mild  TRUE         <NA> 
 7 FALSE     mild     FALSE      normal   normal mild  TRUE         <NA> 
 8 FALSE     mild     FALSE      normal   normal mild  TRUE         <NA> 
 9 FALSE     severe   FALSE      <NA>     <NA>   <NA>  TRUE         <NA> 
10 TRUE      mild     FALSE      elevated absent mild  TRUE         <NA> 
# ℹ 190 more rows
# ℹ 63 more variables: history_buzzing <lgl>, history_dizziness <lgl>,
#   history_fluctuating <lgl>, history_fullness <lgl>, history_heredity <lgl>,
#   history_nausea <lgl>, history_noise <lgl>, history_recruitment <lgl>,
#   history_ringing <lgl>, history_roaring <lgl>, history_vomiting <lgl>,
#   late_wave_poor <lgl>, m_at_2k <lgl>, m_cond_lt_1k <lgl>, m_gt_1k <lgl>,
#   m_m_gt_2k <lgl>, m_m_sn <lgl>, m_m_sn_gt_1k <lgl>, m_m_sn_gt_2k <lgl>, …

Dealing with unknown values

Remove observations or columns with many NA’s

library(dplyr)

missing.value.rows <- data |>
  filter(!complete.cases(data))

missing.value.rows

# A tibble: 196 × 71
   age_gt_60 air      airBoneGap ar_c     ar_u   bone  boneAbnormal bser 
   <lgl>     <chr>    <lgl>      <chr>    <chr>  <chr> <lgl>        <chr>
 1 FALSE     mild     FALSE      normal   normal <NA>  TRUE         <NA> 
 2 FALSE     moderate FALSE      normal   normal <NA>  TRUE         <NA> 
 3 TRUE      mild     TRUE       <NA>     absent mild  TRUE         <NA> 
 4 TRUE      mild     TRUE       <NA>     absent mild  FALSE        <NA> 
 5 TRUE      mild     FALSE      normal   normal mild  TRUE         <NA> 
 6 TRUE      mild     FALSE      normal   normal mild  TRUE         <NA> 
 7 FALSE     mild     FALSE      normal   normal mild  TRUE         <NA> 
 8 FALSE     mild     FALSE      normal   normal mild  TRUE         <NA> 
 9 FALSE     severe   FALSE      <NA>     <NA>   <NA>  TRUE         <NA> 
10 TRUE      mild     FALSE      elevated absent mild  TRUE         <NA> 
# ℹ 186 more rows
# ℹ 63 more variables: history_buzzing <lgl>, history_dizziness <lgl>,
#   history_fluctuating <lgl>, history_fullness <lgl>, history_heredity <lgl>,
#   history_nausea <lgl>, history_noise <lgl>, history_recruitment <lgl>,
#   history_ringing <lgl>, history_roaring <lgl>, history_vomiting <lgl>,
#   late_wave_poor <lgl>, m_at_2k <lgl>, m_cond_lt_1k <lgl>, m_gt_1k <lgl>,
#   m_m_gt_2k <lgl>, m_m_sn <lgl>, m_m_sn_gt_1k <lgl>, m_m_sn_gt_2k <lgl>, …

The dataset has 196 rows of NA out of 200,

Applying a function to find NA’s in a row.

data <- data %>%
  mutate(na_count = rowSums(is.na(data)))
data

# A tibble: 200 × 72
   age_gt_60 air      airBoneGap ar_c     ar_u   bone  boneAbnormal bser 
   <lgl>     <chr>    <lgl>      <chr>    <chr>  <chr> <lgl>        <chr>
 1 FALSE     mild     FALSE      normal   normal <NA>  TRUE         <NA> 
 2 FALSE     moderate FALSE      normal   normal <NA>  TRUE         <NA> 
 3 TRUE      mild     TRUE       <NA>     absent mild  TRUE         <NA> 
 4 TRUE      mild     TRUE       <NA>     absent mild  FALSE        <NA> 
 5 TRUE      mild     FALSE      normal   normal mild  TRUE         <NA> 
 6 TRUE      mild     FALSE      normal   normal mild  TRUE         <NA> 
 7 FALSE     mild     FALSE      normal   normal mild  TRUE         <NA> 
 8 FALSE     mild     FALSE      normal   normal mild  TRUE         <NA> 
 9 FALSE     severe   FALSE      <NA>     <NA>   <NA>  TRUE         <NA> 
10 TRUE      mild     FALSE      elevated absent mild  TRUE         <NA> 
# ℹ 190 more rows
# ℹ 64 more variables: history_buzzing <lgl>, history_dizziness <lgl>,
#   history_fluctuating <lgl>, history_fullness <lgl>, history_heredity <lgl>,
#   history_nausea <lgl>, history_noise <lgl>, history_recruitment <lgl>,
#   history_ringing <lgl>, history_roaring <lgl>, history_vomiting <lgl>,
#   late_wave_poor <lgl>, m_at_2k <lgl>, m_cond_lt_1k <lgl>, m_gt_1k <lgl>,
#   m_m_gt_2k <lgl>, m_m_sn <lgl>, m_m_sn_gt_1k <lgl>, m_m_sn_gt_2k <lgl>, …

Maximum missing values in a row is 7, out if 69 dimensions, so they are not too bad.

Examine columns: how many NA’s in each variable/column:

data |> 
  summarize(across(everything(), ~sum(is.na(.)), .names = "na_{.col}")) %>% 
 
  pivot_longer(everything(), names_to= "column_name", values_to = "na_count") %>%
  arrange(na_count)

# A tibble: 72 × 2
   column_name            na_count
   <chr>                     <int>
 1 na_age_gt_60                  0
 2 na_air                        0
 3 na_airBoneGap                 0
 4 na_boneAbnormal               0
 5 na_history_buzzing            0
 6 na_history_dizziness          0
 7 na_history_fluctuating        0
 8 na_history_fullness           0
 9 na_history_heredity           0
10 na_history_nausea             0
# ℹ 62 more rows
…
matches function can help find the index of a colname given its name:

data <- data %>%
  select(-matches("bser"))

data

# A tibble: 200 × 71
   age_gt_60 air      airBoneGap ar_c   ar_u  bone  boneAbnormal history_buzzing
   <lgl>     <chr>    <lgl>      <chr>  <chr> <chr> <lgl>        <lgl>          
 1 FALSE     mild     FALSE      normal norm… <NA>  TRUE         FALSE          
 2 FALSE     moderate FALSE      normal norm… <NA>  TRUE         FALSE          
 3 TRUE      mild     TRUE       <NA>   abse… mild  TRUE         FALSE          
 4 TRUE      mild     TRUE       <NA>   abse… mild  FALSE        FALSE          
 5 TRUE      mild     FALSE      normal norm… mild  TRUE         FALSE          
 6 TRUE      mild     FALSE      normal norm… mild  TRUE         FALSE          
 7 FALSE     mild     FALSE      normal norm… mild  TRUE         FALSE          
 8 FALSE     mild     FALSE      normal norm… mild  TRUE         FALSE          
 9 FALSE     severe   FALSE      <NA>   <NA>  <NA>  TRUE         FALSE          
10 TRUE      mild     FALSE      eleva… abse… mild  TRUE         FALSE          
# ℹ 190 more rows
# ℹ 63 more variables: history_dizziness <lgl>, history_fluctuating <lgl>,
#   history_fullness <lgl>, history_heredity <lgl>, history_nausea <lgl>,
#   history_noise <lgl>, history_recruitment <lgl>, history_ringing <lgl>,
#   history_roaring <lgl>, history_vomiting <lgl>, late_wave_poor <lgl>,
#   m_at_2k <lgl>, m_cond_lt_1k <lgl>, m_gt_1k <lgl>, m_m_gt_2k <lgl>,
#   m_m_sn <lgl>, m_m_sn_gt_1k <lgl>, m_m_sn_gt_2k <lgl>, …
…
The line fits the data pretty well so mxPH is normal , use mean to fill the unknown.

algae <- algae |>
  mutate(mxPH = ifelse(row_number() == 48, mean(mxPH, na.rm= TRUE),mxPH))
algae

# A tibble: 200 × 18
   season size  speed   mxPH  mnO2    Cl    NO3   NH4  oPO4   PO4  Chla    a1
   <fct>  <fct> <fct>  <dbl> <dbl> <dbl>  <dbl> <dbl> <dbl> <dbl> <dbl> <dbl>
 1 winter small medium  8      9.8  60.8  6.24  578   105   170   50      0  
 2 spring small medium  8.35   8    57.8  1.29  370   429.  559.   1.3    1.4
 3 autumn small medium  8.1   11.4  40.0  5.33  347.  126.  187.  15.6    3.3
 4 spring small medium  8.07   4.8  77.4  2.30   98.2  61.2 139.   1.4    3.1
 5 autumn small medium  8.06   9    55.4 10.4   234.   58.2  97.6 10.5    9.2
 6 winter small high    8.25  13.1  65.8  9.25  430    18.2  56.7 28.4   15.1
 7 summer small high    8.15  10.3  73.2  1.54  110    61.2 112.   3.2    2.4
 8 autumn small high    8.05  10.6  59.1  4.99  206.   44.7  77.4  6.9   18.2
 9 winter small medium  8.7    3.4  22.0  0.886 103.   36.3  71    5.54  25.4
10 winter small high    7.93   9.9   8    1.39    5.8  27.2  46.6  0.8   17  
# ℹ 190 more rows
# ℹ 6 more variables: a2 <dbl>, a3 <dbl>, a4 <dbl>, a5 <dbl>, a6 <dbl>,
#   a7 <dbl>
…
median(algae$Chla, na.rm = TRUE)

[1] 5.475

mean(algae$Chla, na.rm= TRUE)

[1] 13.9712

Mean is not the representative value for Chla . Will use median to fill all missing values in this attribute, instead of doing it one value at a time:

algae <- algae |>
  mutate(Chla = if_else(is.na(Chla), median(Chla, na.rm= TRUE), Chla))
algae

# A tibble: 200 × 18
   season size  speed   mxPH  mnO2    Cl    NO3   NH4  oPO4   PO4  Chla    a1
   <fct>  <fct> <fct>  <dbl> <dbl> <dbl>  <dbl> <dbl> <dbl> <dbl> <dbl> <dbl>
 1 winter small medium  8      9.8  60.8  6.24  578   105   170   50      0  
 2 spring small medium  8.35   8    57.8  1.29  370   429.  559.   1.3    1.4
 3 autumn small medium  8.1   11.4  40.0  5.33  347.  126.  187.  15.6    3.3
 4 spring small medium  8.07   4.8  77.4  2.30   98.2  61.2 139.   1.4    3.1
 5 autumn small medium  8.06   9    55.4 10.4   234.   58.2  97.6 10.5    9.2
 6 winter small high    8.25  13.1  65.8  9.25  430    18.2  56.7 28.4   15.1
 7 summer small high    8.15  10.3  73.2  1.54  110    61.2 112.   3.2    2.4
 8 autumn small high    8.05  10.6  59.1  4.99  206.   44.7  77.4  6.9   18.2
 9 winter small medium  8.7    3.4  22.0  0.886 103.   36.3  71    5.54  25.4
10 winter small high    7.93   9.9   8    1.39    5.8  27.2  46.6  0.8   17  
# ℹ 190 more rows
# ℹ 6 more variables: a2 <dbl>, a3 <dbl>, a4 <dbl>, a5 <dbl>, a6 <dbl>,
#   a7 <dbl>
…
